com\newgen\dbgen_2\DeleteDB.class
com\newgen\dbgen_2\SelectDB.class
com\newgen\dbgen_2\TestUserDao.class
com\newgen\dbgen_2\dao\UserDao.class
com\newgen\dbgen_2\model\User.class
com\newgen\dbgen_2\dao\Dao.class
com\newgen\dbgen_2\ConnectDB.class
com\newgen\dbgen_2\dbhelper\DBHelper.class
com\newgen\dbgen_2\UpdateDB.class
com\newgen\dbgen_2\InsertDB.class
